{
	"access_token": "eyJhbGciOiJSUzI1NiJ9.eyJqdGkiOiI3ZmRmODkyNS1iZjg5LTRlOGItYWEwNS01NzAzM2NiMzY3ZGQiLCJzdWIiOiJLZWhsTFpiTCIsImF1dGhvcml0aWVzIjpbInVzZXIucmVhZCIsInVzZXIud3JpdGUiLCJvcmdhbml6YXRpb25zLkVOR1RFU1QiLCJ1c2Vycy5yZWFkIiwidXNlcnMud3JpdGUiXSwic2NvcGUiOlsidXNlci5yZWFkIiwidXNlci53cml0ZSIsIm9yZ2FuaXphdGlvbnMuRU5HVEVTVCIsInVzZXJzLnJlYWQiLCJ1c2Vycy53cml0ZSJdLCJjbGllbnRfaWQiOiJLZWhsTFpiTCIsImNpZCI6IktlaGxMWmJMIiwiYXpwIjoiS2VobExaYkwiLCJncmFudF90eXBlIjoiY2xpZW50X2NyZWRlbnRpYWxzIiwicmV2X3NpZyI6IjIxY2I5YjViIiwiaWF0IjoxNTA3OTI4MTYyLCJleHAiOjE1MDc5NzEzNjIsImlzcyI6Imh0dHA6Ly9sb2NhbGhvc3Q6ODA4MC91YWEvb2F1dGgvdG9rZW4iLCJ6aWQiOiJ1YWEiLCJhdWQiOlsiS2VobExaYkwiLCJ1c2VyIiwib3JnYW5pemF0aW9ucyIsInVzZXJzIl19.w734HbWeyQ0YzEf846doE8-aona4Sv2QFbft3Wbs-sHeW6obDgFl8SYwP3bXl92m3kEjTvv_ZasLSHWfg9E1zg8D7Yr2bU8G4MERNCPARBa1gI7TA7XUpZ0UDAlaMC0YaR2dC0P7-iJI_wnNxwjIKhGuNvNhEM5z6aO_ikj_SldYTj7JQKK7ynByL2NO7eBY_w8jv-Ia40FdWj6fWaGdqrSb64RsixTsAn3OkDP-AOTm9WRPpGzDSA6aKujpIaTb-JdFdq7EuOzExBnYJ6pstB3qaytO6zhPPMR6oE8auOZXEnlpHQ_SZU4SXpnr9ALL2GJ_-ct0DcZ3LSNhhWBDNA",
	"first_page": {
		"_links": {
			"self": {
				"href": "https://api.qa.fitpay.ninja/users?limit=5&offset=0"
			},
			"last": {
				"href": "https://api.qa.fitpay.ninja/users?limit=5&offset=95"
			},
			"next": {
				"href": "https://api.qa.fitpay.ninja/users?limit=5&offset=5"
			}
		},
		"limit": 5,
		"offset": 0,
		"totalResults": 100,
		"results": {
			"_links": [
				{
					
				}
			],
			"id": "6b51d1ae-63d1-400e-a694-5b4a153b5250",
			"createdTs": "2017-09-18T19:16:35.721Z",
			"createdTsEpoch": 1505762195721,
			"lastModifiedTs": "2017-09-18T19:16:35.721Z",
			"lastModifiedTsEpoch": 1505762195721,
			"encryptedData": [
				{
					
				}
			],
			"userId": "6b51d1ae-63d1-400e-a694-5b4a153b5250"
		}
	},
	"second_page": {
		"_links": {
			"self": {
				"href": "https://api.qa.fitpay.ninja/users?limit=5&offset=5"
			},
			"first": {
				"href": "https://api.qa.fitpay.ninja/users?limit=5&offset=0"
			},
			"last": {
				"href": "https://api.qa.fitpay.ninja/users?limit=5&offset=95"
			},
			"prev": {
				"href": "https://api.qa.fitpay.ninja/users?limit=5&offset=0"
			},
			"next": {
				"href": "https://api.qa.fitpay.ninja/users?limit=5&offset=10"
			}
		},
		"limit": 5,
		"offset": 0,
		"totalResults": 100,
		"results": {
			"_links": [
				{
					
				}
			],
			"id": "6b51d1ae-63d1-400e-a694-5b4a153b5250",
			"createdTs": "2017-09-18T19:16:35.721Z",
			"createdTsEpoch": 1505762195721,
			"lastModifiedTs": "2017-09-18T19:16:35.721Z",
			"lastModifiedTsEpoch": 1505762195721,
			"encryptedData": [
				{
					
				}
			],
			"userId": "6b51d1ae-63d1-400e-a694-5b4a153b5250"
		}
	},
	"last_page": {
		"_links": {
			"self": {
				"href": "https://api.qa.fitpay.ninja/users?limit=5&offset=0"
			},
			"last": {
				"href": "https://api.qa.fitpay.ninja/users?limit=5&offset=95"
			},
			"prev": {
				"href": "https://api.qa.fitpay.ninja/users?limit=5&offset=90"
			}
		},
		"limit": 5,
		"offset": 0,
		"totalResults": 100,
		"results": {
			"_links": [
				{
					
				}
			],
			"id": "6b51d1ae-63d1-400e-a694-5b4a153b5250",
			"createdTs": "2017-09-18T19:16:35.721Z",
			"createdTsEpoch": 1505762195721,
			"lastModifiedTs": "2017-09-18T19:16:35.721Z",
			"lastModifiedTsEpoch": 1505762195721,
			"encryptedData": [
				{
					
				}
			],
			"userId": "6b51d1ae-63d1-400e-a694-5b4a153b5250"
		}
	}
}
